Running: D:\XILINX\14.7\ISE_DS\ISE\bin\nt64\unwrapped\fuse.exe -intstyle ise -incremental -lib unisims_ver -lib unimacro_ver -lib xilinxcorelib_ver -lib secureip -o C:/Users/Taras/Desktop/MTR_Lab4/MTR_Lab4/MTR_Lab4/MTR_sw2_MTR_sw2_sch_tb_isim_beh.exe -prj C:/Users/Taras/Desktop/MTR_Lab4/MTR_Lab4/MTR_Lab4/MTR_sw2_MTR_sw2_sch_tb_beh.prj work.MTR_sw2_MTR_sw2_sch_tb work.glbl 
ISim P.20131013 (signature 0x7708f090)
Number of CPUs detected in this system: 3
Turning on mult-threading, number of parallel sub-compilation jobs: 6 
Determining compilation order of HDL files
Analyzing Verilog file "C:/Users/Taras/Desktop/MTR_Lab4/MTR_Lab4/MTR_Lab4/ipcore_dir/MTR_Mul32.v" into library work
Analyzing Verilog file "C:/Users/Taras/Desktop/MTR_Lab4/MTR_Lab4/MTR_Lab4/ipcore_dir/ADDER_32.v" into library work
WARNING:HDLCompiler:687 - "C:/Users/Taras/Desktop/MTR_Lab4/MTR_Lab4/MTR_Lab4/ipcore_dir/ADDER_32.v" Line 984: Illegal redeclaration of module <glbl>.
Analyzing Verilog file "C:/Users/Taras/Desktop/MTR_Lab4/MTR_Lab4/MTR_Lab4/ipcore_dir/MTR_counter.v" into library work
WARNING:HDLCompiler:687 - "C:/Users/Taras/Desktop/MTR_Lab4/MTR_Lab4/MTR_Lab4/ipcore_dir/MTR_counter.v" Line 162: Illegal redeclaration of module <glbl>.
Analyzing Verilog file "C:/Users/Taras/Desktop/MTR_Lab4/MTR_Lab4/MTR_Lab4/MTR_sw2.vf" into library work
Analyzing Verilog file "D:/XILINX/14.7/ISE_DS/ISE//verilog/src/glbl.v" into library work
WARNING:HDLCompiler:687 - "D:/XILINX/14.7/ISE_DS/ISE//verilog/src/glbl.v" Line 5: Illegal redeclaration of module <glbl>.
Parsing VHDL file "C:/Users/Taras/Desktop/MTR_Lab4/MTR_Lab4/MTR_Lab4/MTR_ROM.vhd" into library work
Parsing VHDL file "C:/Users/Taras/Desktop/MTR_Lab4/MTR_Lab4/MTR_Lab4/MTR_register32.vhd" into library work
Parsing VHDL file "C:/Users/Taras/Desktop/MTR_Lab4/MTR_Lab4/MTR_Lab4/MTR_RAM_32.vhd" into library work
Parsing VHDL file "C:/Users/Taras/Desktop/MTR_Lab4/MTR_Lab4/MTR_Lab4/MTR_RAM1.vhd" into library work
Parsing VHDL file "C:/Users/Taras/Desktop/MTR_Lab4/MTR_Lab4/MTR_Lab4/MTR_Mux_4_32.vhd" into library work
Parsing VHDL file "C:/Users/Taras/Desktop/MTR_Lab4/MTR_Lab4/MTR_Lab4/MTR_Mux_32.vhd" into library work
Parsing VHDL file "C:/Users/Taras/Desktop/MTR_Lab4/MTR_Lab4/MTR_Lab4/mtr_con_8_to_32.vhd" into library work
Parsing VHDL file "C:/Users/Taras/Desktop/MTR_Lab4/MTR_Lab4/MTR_Lab4/MTR_tb1.vhd" into library work
Starting static elaboration
Completed static elaboration
Compiling module glbl
Compiling module LUT3(INIT=8'b01001000)
Compiling module LUT2(INIT=4'b1000)
Compiling module LUT4(INIT=16'b0111100010001000)
Compiling module FD
Compiling module MUXCY
Compiling module XORCY
Compiling module MULT_AND
Compiling module VCC
Compiling module GND
Compiling module MTR_Mul32
Compiling module FDE
Compiling module ADDER_32
Compiling module INV
Compiling module LUT1(INIT=2'b10)
Compiling module MTR_counter
Compiling module MTR_sw2
Compiling package standard
Compiling package std_logic_1164
Compiling package numeric_std
Compiling package vcomponents
Compiling package vl_types
Compiling architecture behavioral of entity MTR_Mux_4_32 [mtr_mux_4_32_default]
Compiling package std_logic_arith
Compiling package std_logic_unsigned
Compiling architecture behavioral of entity MTR_RAM_32 [mtr_ram_32_default]
Compiling architecture behavioral of entity MTR_RAM1 [mtr_ram1_default]
Compiling architecture behavioral of entity MTR_Mux_32 [mtr_mux_32_default]
Compiling architecture behavioral of entity MTR_ROM [mtr_rom_default]
Compiling architecture behavioral of entity MTR_register32 [mtr_register32_default]
Compiling architecture behavioral of entity mtr_con_8_to_32 [mtr_con_8_to_32_default]
Compiling architecture behavioral of entity mtr_sw2_mtr_sw2_sch_tb
Time Resolution for simulation is 1ps.
Waiting for 11 sub-compilation(s) to finish...
Compiled 22 VHDL Units
Compiled 21 Verilog Units
Built simulation executable C:/Users/Taras/Desktop/MTR_Lab4/MTR_Lab4/MTR_Lab4/MTR_sw2_MTR_sw2_sch_tb_isim_beh.exe
Fuse Memory Usage: 54924 KB
Fuse CPU Usage: 1730 ms
