verilog work "ipcore_dir/MTR_Mul32.v"
verilog work "ipcore_dir/ADDER_32.v"
verilog work "ipcore_dir/MTR_counter.v"
vhdl work "MTR_ROM.vhd"
vhdl work "MTR_register32.vhd"
vhdl work "MTR_RAM_32.vhd"
vhdl work "MTR_RAM1.vhd"
vhdl work "MTR_Mux_4_32.vhd"
vhdl work "MTR_Mux_32.vhd"
vhdl work "mtr_con_8_to_32.vhd"
verilog work "MTR_sw2.vf"
vhdl work "MTR_tb1.vhd"
verilog work "D:/XILINX/14.7/ISE_DS/ISE//verilog/src/glbl.v"
