AR mtr_rom behavioral C:/Users/Taras/Desktop/MTR_Lab4/MTR_Lab4/MTR_Lab4/MTR_ROM.vhd sub00/vhpl15 1481369336
AR mtr_mux_32 behavioral C:/Users/Taras/Desktop/MTR_Lab4/MTR_Lab4/MTR_Lab4/MTR_Mux_32.vhd sub00/vhpl03 1481369326
MO ADDER_32 NULL ipcore_dir/ADDER_32.v vlg5C/_a_d_d_e_r__32.bin 1481369323
AR mtr_mux_4_32 behavioral C:/Users/Taras/Desktop/MTR_Lab4/MTR_Lab4/MTR_Lab4/MTR_Mux_4_32.vhd sub00/vhpl05 1481369328
MO MTR_sw2 NULL MTR_sw2.vf vlg6E/_m_t_r__sw2.bin 1481369323
MO MTR_Mul32 NULL ipcore_dir/MTR_Mul32.v vlg59/_m_t_r___mul32.bin 1481369323
MO MTR_MULT8 NULL ipcore_dir/MTR_MULT8.v vlg44/_m_t_r___m_u_l_t8.bin 1513128691
MO FD8CE_MXILINX_MTR_SCH NULL MTR_SCH.vf vlg2D/_f_d8_c_e___m_x_i_l_i_n_x___m_t_r___s_c_h.bin 1513128691
EN mtr_von_8_to_16 NULL C:/PLIS/MTR_Lab4/MTR_Lab4/MTR_Lab4/mtr_von_8_to_16.vhd sub00/vhpl16 1480768566
AR mtr_con_8_to_32 behavioral C:/Users/Taras/Desktop/MTR_Lab4/MTR_Lab4/MTR_Lab4/mtr_con_8_to_32.vhd sub00/vhpl19 1481369324
AR mtr_register32 behavioral C:/Users/Taras/Desktop/MTR_Lab4/MTR_Lab4/MTR_Lab4/MTR_register32.vhd sub00/vhpl11 1481369334
EN mtr_ram1 NULL C:/Users/Taras/Desktop/MTR_Lab4/MTR_Lab4/MTR_Lab4/MTR_RAM1.vhd sub00/vhpl12 1481369329
AR mtr_8_16_conv behavioral C:/Users/Taras/Desktop/MTR_Lab4/MTR_Lab4/MTR_CONVERTER_8_16.vhd sub00/vhpl01 1480014592
EN mtr_rom NULL C:/Users/Taras/Desktop/MTR_Lab4/MTR_Lab4/MTR_Lab4/MTR_ROM.vhd sub00/vhpl14 1481369335
EN mtr_bus_8_32 NULL C:/PLIS/MTR_Lab4/MTR_Lab4/MTR_Lab4/MTR_BUS_8_32.vhd sub00/vhpl08 1480713398
AR mtr_von_8_to_16 behavioral C:/PLIS/MTR_Lab4/MTR_Lab4/MTR_Lab4/mtr_von_8_to_16.vhd sub00/vhpl17 1480768567
EN mtr_con_8_to_32 NULL C:/Users/Taras/Desktop/MTR_Lab4/MTR_Lab4/MTR_Lab4/mtr_con_8_to_32.vhd sub00/vhpl18 1481369323
AR mtr_bus_8_32 behavioral C:/PLIS/MTR_Lab4/MTR_Lab4/MTR_Lab4/MTR_BUS_8_32.vhd sub00/vhpl09 1480713399
MO FD16CE_MXILINX_MTR_SCH NULL MTR_SCH.vf vlg10/_f_d16_c_e___m_x_i_l_i_n_x___m_t_r___s_c_h.bin 1513128691
MO MTR_MULT16 NULL ipcore_dir/MTR_MULT16.v vlg67/_m_t_r___m_u_l_t16.bin 1513128691
EN mtr_mux_4_32 NULL C:/Users/Taras/Desktop/MTR_Lab4/MTR_Lab4/MTR_Lab4/MTR_Mux_4_32.vhd sub00/vhpl04 1481369327
MO MTR_REG NULL ipcore_dir/MTR_REG.v vlg50/_m_t_r___r_e_g.bin 1513128691
AR mtr_ram1 behavioral C:/Users/Taras/Desktop/MTR_Lab4/MTR_Lab4/MTR_Lab4/MTR_RAM1.vhd sub00/vhpl13 1481369330
EN mtr_register32 NULL C:/Users/Taras/Desktop/MTR_Lab4/MTR_Lab4/MTR_Lab4/MTR_register32.vhd sub00/vhpl10 1481369333
MO MTR_counter NULL ipcore_dir/MTR_counter.v vlg5E/_m_t_r__counter.bin 1481369323
MO MTR_SCH NULL MTR_SCH.vf vlg60/_m_t_r___s_c_h.bin 1513128691
EN mtr_mux_32 NULL C:/Users/Taras/Desktop/MTR_Lab4/MTR_Lab4/MTR_Lab4/MTR_Mux_32.vhd sub00/vhpl02 1481369325
EN mtr_ram_32 NULL C:/Users/Taras/Desktop/MTR_Lab4/MTR_Lab4/MTR_Lab4/MTR_RAM_32.vhd sub00/vhpl06 1481369331
EN mtr_8_16_conv NULL C:/Users/Taras/Desktop/MTR_Lab4/MTR_Lab4/MTR_CONVERTER_8_16.vhd sub00/vhpl00 1480014591
AR mtr_ram_32 behavioral C:/Users/Taras/Desktop/MTR_Lab4/MTR_Lab4/MTR_Lab4/MTR_RAM_32.vhd sub00/vhpl07 1481369332
MO ADD16_MXILINX_MTR_SCH NULL MTR_SCH.vf vlg3B/_a_d_d16___m_x_i_l_i_n_x___m_t_r___s_c_h.bin 1513128691
