<?xml version="1.0" encoding="UTF-8"?>
<symbol version="7" name="MRI_1">
    <symboltype>BLOCK</symboltype>
    <timestamp>2016-11-14T17:37:28</timestamp>
    <pin polarity="Input" x="0" y="-32" name="MRI_A(7:0)" />
    <pin polarity="Output" x="432" y="-32" name="MRI_1_M(39:0)" />
    <graph>
        <attrtext style="alignment:BCENTER;fontsize:56;fontname:Arial" attrname="SymbolName" x="216" y="-72" type="symbol" />
        <attrtext style="fontsize:24;fontname:Arial" attrname="PinName" x="72" y="-32" type="pin MRI_A(7:0)" />
        <attrtext style="alignment:RIGHT;fontsize:24;fontname:Arial" attrname="PinName" x="360" y="-32" type="pin MRI_1_M(39:0)" />
        <rect width="304" x="64" y="-64" height="64" />
        <rect width="64" x="0" y="-44" height="24" />
        <line x2="0" y1="-32" y2="-32" x1="64" />
        <rect width="64" x="368" y="-44" height="24" />
        <line x2="432" y1="-32" y2="-32" x1="368" />
    </graph>
</symbol>
